nlmixr project status
…
  Covariance Type ($covMethod): r,s
  No correlations in between subject variability (BSV) matrix
  Full BSV covariance ($omega) or correlation ($omegaR; diagonals=SDs) 
  Distribution stats (mean/skewness/kurtosis/p-value) available in $shrink 
  Information about run found ($runInfo):
   • gradient problems with initial estimate and covariance; see $scaleInfo 
   • ETAs were reset to zero during optimization; (Can control by foceiControl(resetEtaP=.)) 
   • initial ETAs were nudged; (can control by foceiControl(etaNudge=., etaNudge2=)) 
  Censoring ($censInformation): No censoring
  Minimization message ($message):  
    relative convergence (4) 

── Fit Data (object is a modified tibble): ──
# A tibble: 132 × 23
  ID     TIME    DV  PRED     RES    WRES IPRED   IRES  IWRES CPRED  CRES  CWRES
  <fct> <dbl> <dbl> <dbl>   <dbl>   <dbl> <dbl>  <dbl>  <dbl> <dbl> <dbl>  <dbl>
1 1      0     0.74  0    0.74    1.07     0     0.74   1.07   0    0.74  1.07  
2 1      0.25  2.84  2.83 0.00619 0.00363  3.86 -1.02  -1.48   2.67 0.166 0.0758
3 1      0.57  6.57  5.06 1.51    0.670    6.78 -0.210 -0.304  4.83 1.74  0.622 
# ℹ 129 more rows
# ℹ 11 more variables: eta.ka <dbl>, eta.cl <dbl>, eta.v <dbl>, depot <dbl>,
#   central <dbl>, ka <dbl>, cl <dbl>, v <dbl>, tad <dbl>, dosenum <dbl>,
#   WT <dbl>
…
